WarwickLove
…
The summary above presents that the data is right skewed and hence we need to remove the outliers in the new step.

However, lets check the data based on TF-IDF scores.

# let's explore the top 10 words with the highest tf-idf
listing_tf_idf_2 %>% 
  group_by(word) %>% 
  arrange(desc(tf_idf)) %>% 
  top_n(10)

## Selecting by tf_idf

## # A tibble: 1,532 x 6
## # Groups:   word [353]
##    doc_id  word          n    tf   idf tf_idf
##    <chr>   <chr>     <int> <dbl> <dbl>  <dbl>
##  1 doc1060 candidate     2     1  5.57   5.57
##  2 doc4520 lunch         2     1  5.57   5.57
##  3 doc1085 faster        1     1  5.57   5.57
##  4 doc1198 placement     1     1  5.57   5.57
##  5 doc1290 poster        1     1  5.57   5.57
##  6 doc1372 candidate     1     1  5.57   5.57
##  7 doc1457 placement     1     1  5.57   5.57
##  8 doc1458 means         1     1  5.57   5.57
##  9 doc1554 climate       1     1  5.57   5.57
## 10 doc1696 climate       1     1  5.57   5.57
## # ... with 1,522 more rows
…
## Joining, by = "doc_id"

bi_tf_idf <- bi_words %>% bind_tf_idf(bigram,doc_id,n) %>% select(-total) 

# let's explore the top 10 words with the lowest tf-idf
bi_tf_idf %>% 
  group_by(bigram) %>% 
  arrange(desc(tf_idf)) %>% 
  top_n(10) 

## Selecting by tf_idf

## # A tibble: 2,951 x 6
## # Groups:   bigram [2,746]
##    doc_id  bigram               n    tf   idf tf_idf
##    <chr>   <chr>            <int> <dbl> <dbl>  <dbl>
##  1 doc969  related math         2     1  7.32   7.32
##  2 doc1002 library don          1     1  7.32   7.32
##  3 doc1020 length middle        1     1  7.32   7.32
##  4 doc1023 phone red            1     1  7.32   7.32
##  5 doc1042 victory royale       1     1  7.32   7.32
##  6 doc1043 vote strictly        1     1  7.32   7.32
##  7 doc1050 doctor note          1     1  7.32   7.32
##  8 doc1054 ds battery           1     1  7.32   7.32
##  9 doc1064 normal evision       1     1  7.32   7.32
## 10 doc1069 access wellbeing     1     1  7.32   7.32
## # ... with 2,941 more rows
…
##    Min. 1st Qu.  Median    Mean 3rd Qu.    Max. 
##  0.1525  1.5368  3.3124  3.6559  7.3179  7.3179

# drop the rows containing outliers
bi_tf_idf_2 <- bi_tf_idf %>% filter(tf_idf <= 5.5 & tf_idf >= 0.98)

bi_tf_idf_2 %>% 
    group_by(bigram) %>% 
    arrange(desc(tf_idf)) %>% 
    top_n(10)

## Selecting by tf_idf

## # A tibble: 1,697 x 6
## # Groups:   bigram [1,615]
##    doc_id  bigram                     n    tf   idf tf_idf
##    <chr>   <chr>                  <int> <dbl> <dbl>  <dbl>
##  1 doc1392 tuition fee                1 1      5.37   5.37
##  2 doc4399 summer party               1 1      5.37   5.37
##  3 doc4484 house party                1 1      5.37   5.37
##  4 doc4673 summer party               1 1      5.37   5.37
##  5 doc306  vaccination clinic         2 0.667  7.32   4.88
##  6 doc594  foreign language           2 0.667  7.32   4.88
##  7 doc3128 substitute personality     1 1      4.43   4.43
##  8 doc3223 substitute personality     1 1      4.43   4.43
##  9 doc3396 substitute personality     1 1      4.43   4.43
## 10 doc3502 substitute personality     1 1      4.43   4.43
## # ... with 1,687 more rows
…
